<?xml version="1.0" encoding="utf-8"?>
<!-- Generator: Adobe Illustrator 27.6.1, SVG Export Plug-In . SVG Version: 6.00 Build 0)  -->
<svg version="1.1" id="Layer_1" xmlns="http://www.w3.org/2000/svg" xmlns:xlink="http://www.w3.org/1999/xlink" x="0px" y="0px"
	 viewBox="0 0 75 75" style="enable-background:new 0 0 75 75;" xml:space="preserve">
<style type="text/css">
	.st0{fill:#1F26B2;}
</style>
<g>
	<path class="st0" d="M11.8,27.1c-2.1,0-3.6-0.7-3.6-2.3c0-0.6,0.2-1.3,0.6-2.3c0.8-1.7,2.9-3.5,6.2-5.4L15,15.7
		c0.5-0.6,1-1.1,1.5-1.6h0.2c0.1,3,0.1,6.1,0.1,9.1c0,1.3,0.2,2.2,0.7,2.8c0.4,0.4,1.2,0.5,2.1,0.5h0.5v2.5h-0.4
		c-1.9,0-3.3-0.5-4-2.7C14.6,26.7,13.4,27.1,11.8,27.1z M15.3,19.3c-3.5,1.8-5.3,3.2-5.3,4.3c0,0.8,1.2,1.1,2.5,1.1
		c0.8,0,1.7-0.2,2.9-0.5L15.3,19.3z M13,12.4c-0.8-0.8-1.5-1.4-2.3-2c0.5-0.7,1.1-1.3,1.5-1.9c0.8,0.6,1.5,1.3,2.2,2.1
		C13.9,11.4,13.5,11.9,13,12.4z M16.8,12.1c-0.8-0.8-1.5-1.4-2.3-2C15,9.4,15.5,8.7,16,8.2c0.8,0.6,1.5,1.3,2.2,2.1
		C17.7,11.1,17.3,11.6,16.8,12.1z"/>
	<path class="st0" d="M20.5,26.4c1.7,0,3-0.1,3.8-0.4c0.7-0.3,1.1-0.5,1.1-0.9c0-0.9-0.9-2.8-2-4.8c0.5-0.8,1-1.6,1.5-2.2h0.1
		c0.9,1.6,2,4,2,6c0,1.5-0.6,2.6-1.4,3.6c-0.9,0.9-2.3,1.2-5.3,1.2h-0.2c-1.1,0-1.4-0.8-1.4-1.3c0-0.5,0.3-1.2,1.4-1.2H20.5z
		 M24.2,32.6c0.8,0.6,1.6,1.3,2.3,2.1c-0.4,0.7-1,1.3-1.6,1.9c-0.8-0.7-1.5-1.3-2.3-2C23.1,33.9,23.7,33.2,24.2,32.6z"/>
	<path class="st0" d="M30.8,29.2C31,28,31,26.6,31,25.3v-1.9c0-3.6-0.4-8.8-0.7-12.1c0.5-0.7,1.3-1.5,1.9-2.1l0.2,0.1
		c0.4,4.3,0.5,9.2,0.5,13.8c0,1.2,0,2.4-0.1,3.2c-0.1,1.1-0.6,1.9-1.7,3.1L30.8,29.2z"/>
	<path class="st0" d="M48.3,26.4v2.5h-1.6c-0.1,1.2-0.7,2.8-1.5,4c-1.5,2.3-3.7,3.3-4.7,3.3c-1.8,0-3.8-0.8-5.6-2l0.3-0.6
		c0.8,0.4,1.7,0.7,2.9,0.7c2,0,3.8-1,5.4-2.7c0.9-1,1.6-1.7,1.8-2.7h-1c-4,0-6-1.3-6-4c0-1.3,0.4-2.3,1-3.1c0.7-1.1,1.8-1.9,3-1.9
		c1.8,0,3.7,2.5,4.2,6.5H48.3z M43.9,23.6c-0.6-0.7-1.3-1.1-2.1-1.1c-1.1,0-2.2,0.9-2.2,1.7c0,1,0.9,1.6,2.1,1.9
		c1.1,0.3,2.2,0.3,3.5,0.3C45,25.3,44.6,24.3,43.9,23.6z"/>
	<path class="st0" d="M48.7,26.4c1.7,0,3-0.1,3.8-0.4c0.7-0.3,1.1-0.5,1.1-0.9c0-0.9-0.9-2.8-2-4.8c0.5-0.8,1-1.6,1.5-2.2h0.1
		c0.9,1.6,2,4,2,6c0,1.5-0.6,2.6-1.4,3.6c-0.9,0.9-2.3,1.2-5.3,1.2h-0.2c-1.1,0-1.4-0.8-1.4-1.3c0-0.5,0.3-1.2,1.4-1.2H48.7z
		 M52.3,32.6c0.8,0.6,1.6,1.3,2.3,2.1c-0.4,0.7-1,1.3-1.6,1.9c-0.8-0.7-1.5-1.3-2.3-2C51.3,33.9,51.8,33.2,52.3,32.6z"/>
</g>
<g>
	<path d="M5.4,55c-2,0-3.8-0.7-3.8-2.8c0-0.9,0.3-1.9,0.8-3c1.1-2.3,3.2-3.9,5.7-5.3l-0.1-1c0.6-0.6,1.3-1.2,1.9-1.8l0.3,0.1
		c0.1,1.9,0.1,4.3,0.1,7.2c0,1.6,0,2.9,0.6,3.5c0.6,0.5,1.1,0.7,2.2,0.7h0.3v3.9h-0.3c-2.4,0-3.5-0.4-4.3-2.2
		C7.7,54.7,6.5,55,5.4,55z M5.5,35.7c0.9,0.8,1.6,1.6,2.2,2.4c-0.5,0.7-1.2,1.4-1.9,2c-0.7-0.8-1.5-1.6-2.3-2.3L5.5,35.7z M8.4,47
		c-2.8,1.3-4.6,2.7-4.6,3.5c0,0.7,0.9,0.9,2,0.9c0.9,0,1.8-0.1,2.6-0.4C8.5,49.4,8.4,48,8.4,47z M9.7,35.6c0.9,0.8,1.6,1.6,2.2,2.4
		c-0.5,0.7-1.2,1.4-1.9,2c-0.7-0.8-1.5-1.6-2.3-2.3L9.7,35.6z"/>
	<path d="M14.6,52.5c4.2,0,7-0.1,7-1.2c0-0.1,0-0.2-0.1-0.3c-0.7,0.1-1.4,0.1-2.1,0.1c-3.3,0-5.1-1.2-5.1-3.7c0-1.5,0.5-2.9,1.5-3.9
		c0.9-1,2-1.7,3.1-1.7c2.7,0,4.4,4.8,4.4,9.3c0,5.1-3.2,5.4-9.5,5.4h-0.3c-0.9,0-1.4-1-1.4-2s0.4-2,1.4-2H14.6z M17.6,35.9
		c1,0.7,2,1.5,2.8,2.3c-0.4,1-1,1.8-1.8,2.4c-0.8-0.7-1.8-1.4-2.8-2.2L17.6,35.9z M18,44.8c-1.3,0-2.1,0.7-2.1,1.3
		c0,1.1,2.1,1.9,5.1,1.9C20.3,46,19.3,44.8,18,44.8z"/>
	<path d="M37.7,56.5h-0.3c-0.8,0-1.4-0.2-2-0.4c0,2-0.6,3.3-1.3,4.4c-1.1,1.7-2.3,2.8-3.9,2.8c-1.4,0-3.1-0.6-5.2-1.9l0.4-1
		c0.7,0.3,1.3,0.3,1.8,0.3c1.6,0,3-0.7,4.3-1.8c1.3-1.2,2.1-2.5,2.3-3.7c-0.8-1-1.5-2.2-2.2-3.6c0.4-1.1,0.9-2,1.4-2.9h0.3
		c1,2.3,2.1,3.8,4.3,3.8h0.3V56.5z"/>
	<path d="M47.8,51.8c1.3,0.7,2.6,0.8,4.3,0.8h0.3v3.9h-0.3c-2.4,0-4.5-0.5-6.9-2.3c-2.6,1.9-4.7,2.3-7.3,2.3h-0.3
		c-0.9,0-1.4-1-1.4-2s0.4-2,1.4-2h0.8c2,0,3.4-0.2,4.2-0.5v-0.1c-0.8-0.7-1.5-1.4-2.4-2.3C40,49.3,39.7,49,39.1,49h-0.5L38.5,49
		l1.1-3.2c1.4-0.1,3.2-0.7,6.3-0.7c2,0,3.9,0.3,5.5,1c-0.2,1-0.4,1.9-0.6,2.9C49.8,49.9,48.8,50.8,47.8,51.8L47.8,51.8z M48.8,48.6
		c-0.9-0.3-1.9-0.4-3.1-0.4c-1.3,0-2.4,0.1-3.2,0.3v0.1c1.1,1,2.2,1.8,3.2,2.5C46.6,50.4,47.6,49.6,48.8,48.6L48.8,48.6z"/>
	<path d="M56.9,55c-1.1,0.9-2.4,1.4-4.2,1.4h-0.3c-0.9,0-1.4-1-1.4-2s0.4-2,1.4-2h0.3c1.6,0,3-0.2,4.1-0.8c-0.2-3.1-0.3-6.2-0.4-9.2
		c0-0.9-0.3-2.1-0.3-2.9c0-0.7,0.2-1.3,0.5-1.8s0.8-1,1.5-1.5l0.2,0.2c0,1.3,0.7,2.9,2.1,5.2l-1.8,1.3c0,4.1,0.1,6,0.2,7.5
		c0.8-0.3,1.6-0.5,2.2-0.5c2,0,3.8,1.6,3.8,4.5c0,1.7-1.1,4.6-3.9,4.6C59.2,59.2,57.5,57.8,56.9,55L56.9,55z M62.3,56.1
		c0.3,0,0.6-0.1,0.8-0.3c-0.2-1.8-1.5-2.6-2.7-2.6c-0.5,0-1,0.1-1.4,0.3C59.6,55.1,60.9,56.1,62.3,56.1z"/>
	<path d="M68.2,56.7c0.2-1.4,0.3-2.8,0.3-4.7c0-4.2-0.2-8.4-0.7-12.7c0.8-0.9,1.5-1.8,2.3-2.5l0.3,0.2c0.4,4.2,0.4,8.2,0.4,12
		c0,3.1-0.2,5.1-0.6,5.8c-0.4,0.7-0.9,1.5-1.6,2.3L68.2,56.7z"/>
</g>
</svg>
